<?xml version="1.0" encoding="UTF-8" ?>
<testsuite failures="0" time="0" errors="0" skipped="0" tests="15" name="mieszko.test.PersonTest">
  <properties>
    <property name="java.runtime.name" value="Java(TM) SE Runtime Environment"/>
    <property name="sun.boot.library.path" value="C:\Program Files\Java\jdk1.7.0_04\jre\bin"/>
    <property name="java.vm.version" value="23.0-b21"/>
    <property name="java.vm.vendor" value="Oracle Corporation"/>
    <property name="java.vendor.url" value="http://java.oracle.com/"/>
    <property name="path.separator" value=";"/>
    <property name="guice.disable.misplaced.annotation.check" value="true"/>
    <property name="java.vm.name" value="Java HotSpot(TM) Client VM"/>
    <property name="file.encoding.pkg" value="sun.io"/>
    <property name="user.script" value=""/>
    <property name="user.country" value="IE"/>
    <property name="sun.java.launcher" value="SUN_STANDARD"/>
    <property name="sun.os.patch.level" value="Service Pack 1"/>
    <property name="java.vm.specification.name" value="Java Virtual Machine Specification"/>
    <property name="user.dir" value="C:\Users\a00214927\Downloads\ASWEGO\ASWEGO\lab1_2\GameMaven-master\GameMaven-master\GameMaven"/>
    <property name="java.runtime.version" value="1.7.0_04-b20"/>
    <property name="java.awt.graphicsenv" value="sun.awt.Win32GraphicsEnvironment"/>
    <property name="java.endorsed.dirs" value="C:\Program Files\Java\jdk1.7.0_04\jre\lib\endorsed"/>
    <property name="os.arch" value="x86"/>
    <property name="java.io.tmpdir" value="C:\cygwin\tmp\"/>
    <property name="line.separator" value="
"/>
    <property name="java.vm.specification.vendor" value="Oracle Corporation"/>
    <property name="user.variant" value=""/>
    <property name="os.name" value="Windows 7"/>
    <property name="maven.ext.class.path" value="C:\Users\a00214927\.hudson\maven\slavebundle\resources;C:\Users\a00214927\.hudson\maven\slavebundle\lib\maven3-eventspy-3.1.jar;C:\Users\a00214927\.hudson\war\webapp\WEB-INF\lib\hudson-remoting-3.0.0.jar"/>
    <property name="classworlds.conf" value="C:\Users\a00214927\.hudson\maven\slavebundle\bundled-maven\bin\m2.conf"/>
    <property name="sun.jnu.encoding" value="Cp1252"/>
    <property name="java.library.path" value="C:\Program Files\Java\jdk1.7.0_04\bin;C:\Windows\Sun\Java\bin;C:\Windows\system32;C:\Windows;C:\cygwin\usr\local\bin;C:\cygwin\bin;C:\Program Files\NVIDIA Corporation\PhysX\Common;C:\Python32\Lib\site-packages\PyQt4;C:\Windows\system32;C:\Windows;C:\Windows\System32\Wbem;C:\Windows\System32\WindowsPowerShell\v1.0;C:\Program Files\Microsoft SQL Server\100\Tools\Binn;C:\Program Files\Microsoft SQL Server\100\DTS\Binn;C:\Program Files\SlikSvn\bin;C:\MATLAB7\bin\win32;C:\Program Files\QuickTime\QTSystem;C:\Program Files\MySQL\MySQL Server 5.1\bin;C:\Program Files\Microsoft ASP.NET\ASP.NET Web Pages\v1.0;."/>
    <property name="hudson.eventspy.port" value="62989"/>
    <property name="java.specification.name" value="Java Platform API Specification"/>
    <property name="java.class.version" value="51.0"/>
    <property name="sun.management.compiler" value="HotSpot Client Compiler"/>
    <property name="os.version" value="6.1"/>
    <property name="user.home" value="C:\Users\a00214927"/>
    <property name="user.timezone" value="Europe/London"/>
    <property name="java.awt.printerjob" value="sun.awt.windows.WPrinterJob"/>
    <property name="java.specification.version" value="1.7"/>
    <property name="file.encoding" value="Cp1252"/>
    <property name="user.name" value="A00214927"/>
    <property name="java.class.path" value="C:\Users\a00214927\.hudson\maven\slavebundle\bundled-maven\boot\plexus-classworlds-2.5.1.jar"/>
    <property name="org.slf4j.simpleLogger.defaultLogLevel" value="info"/>
    <property name="java.vm.specification.version" value="1.7"/>
    <property name="sun.arch.data.model" value="32"/>
    <property name="java.home" value="C:\Program Files\Java\jdk1.7.0_04\jre"/>
    <property name="sun.java.command" value="org.codehaus.plexus.classworlds.launcher.Launcher clean install -V -B -Dmaven.ext.class.path=C:\Users\a00214927\.hudson\maven\slavebundle\resources;C:\Users\a00214927\.hudson\maven\slavebundle\lib\maven3-eventspy-3.1.jar;C:\Users\a00214927\.hudson\war\webapp\WEB-INF\lib\hudson-remoting-3.0.0.jar -Dhudson.eventspy.port=62989 -f C:\Users\a00214927\Downloads\ASWEGO\ASWEGO\lab1_2\GameMaven-master\GameMaven-master\GameMaven\pom.xml"/>
    <property name="java.specification.vendor" value="Oracle Corporation"/>
    <property name="user.language" value="en"/>
    <property name="awt.toolkit" value="sun.awt.windows.WToolkit"/>
    <property name="java.vm.info" value="mixed mode, sharing"/>
    <property name="java.version" value="1.7.0_04"/>
    <property name="java.ext.dirs" value="C:\Program Files\Java\jdk1.7.0_04\jre\lib\ext;C:\Windows\Sun\Java\lib\ext"/>
    <property name="sun.boot.class.path" value="C:\Program Files\Java\jdk1.7.0_04\jre\lib\resources.jar;C:\Program Files\Java\jdk1.7.0_04\jre\lib\rt.jar;C:\Program Files\Java\jdk1.7.0_04\jre\lib\sunrsasign.jar;C:\Program Files\Java\jdk1.7.0_04\jre\lib\jsse.jar;C:\Program Files\Java\jdk1.7.0_04\jre\lib\jce.jar;C:\Program Files\Java\jdk1.7.0_04\jre\lib\charsets.jar;C:\Program Files\Java\jdk1.7.0_04\jre\lib\jfr.jar;C:\Program Files\Java\jdk1.7.0_04\jre\classes"/>
    <property name="java.vendor" value="Oracle Corporation"/>
    <property name="maven.home" value="C:\Users\a00214927\.hudson\maven\slavebundle\bundled-maven"/>
    <property name="file.separator" value="\"/>
    <property name="java.vendor.url.bug" value="http://bugreport.sun.com/bugreport/"/>
    <property name="sun.cpu.endian" value="little"/>
    <property name="sun.io.unicode.encoding" value="UnicodeLittle"/>
    <property name="sun.desktop" value="windows"/>
    <property name="sun.cpu.isalist" value="pentium_pro+mmx pentium_pro pentium+mmx pentium i486 i386 i86"/>
  </properties>
  <testcase time="0" classname="mieszko.test.PersonTest" name="testAddGame"/>
  <testcase time="0" classname="mieszko.test.PersonTest" name="testDeleteAllGame"/>
  <testcase time="0" classname="mieszko.test.PersonTest" name="testDeleteGame"/>
  <testcase time="0" classname="mieszko.test.PersonTest" name="testEditGameReleaseYear"/>
  <testcase time="0" classname="mieszko.test.PersonTest" name="testFindAllGameByName"/>
  <testcase time="0" classname="mieszko.test.PersonTest" name="testFindAllGameByType"/>
  <testcase time="0" classname="mieszko.test.PersonTest" name="testFindAllGameByReleaseYear"/>
  <testcase time="0" classname="mieszko.test.PersonTest" name="testSetName"/>
  <testcase time="0" classname="mieszko.test.PersonTest" name="testGetName"/>
  <testcase time="0" classname="mieszko.test.PersonTest" name="testPerson"/>
  <testcase time="0" classname="mieszko.test.PersonTest" name="testEditGamePrize"/>
  <testcase time="0" classname="mieszko.test.PersonTest" name="testEditGameType"/>
  <testcase time="0" classname="mieszko.test.PersonTest" name="testGetListOfGame"/>
  <testcase time="0" classname="mieszko.test.PersonTest" name="testSetListOfGame"/>
  <testcase time="0" classname="mieszko.test.PersonTest" name="testPriceException"/>
</testsuite>